<svg width="108" height="81" viewBox="0 0 108 81" fill="none" xmlns="http://www.w3.org/2000/svg">
<path d="M20.0222 69.2382C19.2358 72.1896 16.5561 74.25 13.5017 74.25C12.9161 74.25 12.3323 74.1741 11.7636 74.0222C8.16581 73.062 6.021 69.3563 6.97781 65.7602L9.98663 54.4776C4.24406 56.0335 0 61.2732 0 67.5C0 74.9436 6.05644 81 13.5 81C20.9436 81 27 74.9436 27 67.5C27 63.774 25.4829 60.3957 23.031 57.9505L20.0222 69.2382Z" fill="white"/>
<path d="M94.5001 54C89.5169 54 85.1665 56.7219 82.8259 60.75H94.5001C98.2227 60.75 101.25 63.7774 101.25 67.5C101.25 71.2226 98.2227 74.25 94.5001 74.25H82.8259C85.1665 78.2781 89.5169 81 94.5001 81C101.944 81 108 74.9436 108 67.5C108 60.0564 101.944 54 94.5001 54Z" fill="white"/>
<path d="M97.875 67.5C97.875 65.637 96.363 64.125 94.5 64.125H38.8615L23.593 42.7478L30.2603 17.7441C30.3379 17.4606 30.375 17.1686 30.375 16.875V3.375C30.375 1.512 28.863 0 27 0H16.875C15.012 0 13.5 1.512 13.5 3.375V6.75C13.5 8.613 15.012 10.125 16.875 10.125C18.738 10.125 20.25 8.613 20.25 6.75H23.625V16.4329L10.2381 66.6309C9.75884 68.4315 10.8287 70.281 12.6293 70.7619C12.9212 70.8396 13.2148 70.875 13.5017 70.875C14.9935 70.875 16.3586 69.8777 16.762 68.3691L21.3385 51.2055L34.3795 69.4609C35.0123 70.3485 36.0349 70.875 37.125 70.875H94.5C96.363 70.875 97.875 69.363 97.875 67.5Z" fill="white"/>
</svg>
